Hash,Name,Title,Company,Description,Country,Zip,City,State,Address,Email,Website,Phonenumber,Items,Tags,
"AUM Vijaya Agencies India Private Limited
","AUM Vijaya Agencies India Private Limited
","AUM Vijaya Agencies India Private Limited
","AUM Vijaya Agencies India Private Limited
","AUM Vijaya Agencies India Private Limited
","AUM Vijaya Agencies India Private Limited
","AUM Vijaya Agencies India Private Limited
","AUM Vijaya Agencies India Private Limited
","AUM Vijaya Agencies India Private Limited
","AUM Vijaya Agencies India Private Limited
","AUM Vijaya Agencies India Private Limited
","AUM Vijaya Agencies India Private Limited
","AUM Vijaya Agencies India Private Limited
","AUM Vijaya Agencies India Private Limited
","AUM Vijaya Agencies India Private Limited
","
"
